@startuml
!define LIGHTBLUE

'__Title
title
PERSONAL FINANCE MANAGEMENT

<u>US005.1</u> <b>Create a Group Category</b>
Controller REST Sequence Diagram - <i>Sprint 7</i>

end title

hide footbox


participant ":HTTP Client"
participant "Tomcat (Web Server)"
participant ":US003AddPersonToGroupControllerREST"

ref over ":HTTP Client", "Tomcat (Web Server)", ":US003AddPersonToGroupControllerREST" : SD_Tomcat_Generic Processing Representation\n

":US003AddPersonToGroupControllerREST" -[hidden]-> ":US003AddPersonToGroupControllerREST"


activate ":US003AddPersonToGroupControllerREST" #34b7eb

participant "AddPersonToGroupDTOAssembler"

participant "us003AddPersonToGroupService : \nUS003AddPersonToGroupService"

":US003AddPersonToGroupControllerREST" [#blue]->  "AddPersonToGroupDTOAssembler" : createDataTransferObject_Primitives\n(email, groupDenomination)
activate "AddPersonToGroupDTOAssembler" #34b7eb
create "addPersonToGroupDTO : \nAddPersonToGroupDTO"
"AddPersonToGroupDTOAssembler" [#blue]-->  "addPersonToGroupDTO : \nAddPersonToGroupDTO" : create(email, groupDenomination)
return <b>addPersonToGroupDTO</b>
deactivate "AddPersonToGroupDTOAssembler"


":US003AddPersonToGroupControllerREST" [#blue]->  "us003AddPersonToGroupService : \nUS003AddPersonToGroupService" : addPersonToGroup(addPersonToGroupDTO)


participant "PersonID"

activate "us003AddPersonToGroupService : \nUS003AddPersonToGroupService" #34b7eb

"us003AddPersonToGroupService : \nUS003AddPersonToGroupService" [#blue]->  "addPersonToGroupDTO : \nAddPersonToGroupDTO" : getEmail()
activate "addPersonToGroupDTO : \nAddPersonToGroupDTO" #34b7eb
return String <b>email</b>
deactivate "addPersonToGroupDTO : \nAddPersonToGroupDTO"

"us003AddPersonToGroupService : \nUS003AddPersonToGroupService" [#blue]->  "addPersonToGroupDTO : \nAddPersonToGroupDTO" : getDenomination()
activate "addPersonToGroupDTO : \nAddPersonToGroupDTO" #34b7eb
return String <b>denomination</b>
deactivate "addPersonToGroupDTO : \nAddPersonToGroupDTO"


"us003AddPersonToGroupService : \nUS003AddPersonToGroupService" [#blue]->  "PersonID" : createPersonID(email)
activate "PersonID" #34b7eb
ref over "PersonID" : SD_PersonID
return <b>personID</b>
deactivate "personID : \nPersonID"


participant "personRepository : PersonRepository"

"us003AddPersonToGroupService : \nUS003AddPersonToGroupService" [#blue]-> "personRepository : PersonRepository" : existPerson(personID)
activate "personRepository : PersonRepository" #34b7eb
return boolean <b>personExists</b>



participant "GroupID"


"us003AddPersonToGroupService : \nUS003AddPersonToGroupService" [#blue]->  "GroupID" : createGroupID(groupDenominationFromDTO)
activate "GroupID" #34b7eb
ref over "GroupID" : SD_GroupID
return <b>groupID</b>
deactivate "groupID : \nGroupID"



participant "groupRepository : GroupRepository"


"us003AddPersonToGroupService : \nUS003AddPersonToGroupService" [#blue]-> "groupRepository : GroupRepository" : findGroupByID(groupID)
activate "groupRepository : GroupRepository" #34b7eb
return Group <b>group</b>

participant "group: Group"

"us003AddPersonToGroupService : \nUS003AddPersonToGroupService" [#blue]-> "group: Group": isPersonAlreadyMember(personID)
activate "group: Group" #34b7eb
return boolean <b>isPersonAlreadyMember</b>

"us003AddPersonToGroupService : \nUS003AddPersonToGroupService" [#blue]-> "group: Group": addMember(personID)
activate "group: Group" #34b7eb
return boolean <b>true</b>

participant "GroupDTOAssembler"

"us003AddPersonToGroupService : \nUS003AddPersonToGroupService" [#blue]->  "GroupDTOAssembler" : createDTOFromDomainObject(Denomination denomination, Description description, DateOfCreation dateOfCreation)
activate "GroupDTOAssembler" #34b7eb
ref over "GroupDTOAssembler" : SD_GroupDTOAssembler
return <b>groupDTO</b>
deactivate "groupDTO : \nGroupDTO"


":US003AddPersonToGroupControllerREST" <-- "us003AddPersonToGroupService : \nUS003AddPersonToGroupService": <b>grouppDTO</b>

deactivate "us003AddPersonToGroupService : \nUS003AddPersonToGroupService"

deactivate ":US003AddPersonToGroupControllerREST"

ref over ":HTTP Client", "Tomcat (Web Server)", ":US003AddPersonToGroupControllerREST" : SD_Tomcat_Generic Processing Representation\n


@enduml