{
	"info": {
		"_postman_id": "f70eb592-ff2c-464c-ae6f-bf550a2add2b",
		"name": "Sprint 5 - US001_CheckIfSiblingsControllerRest.postman_collection",
		"schema": "https://schema.getpostman.com/json/collection/v2.1.0/collection.json"
	},
	"item": [
		{
			"name": "http://localhost:8080/checkIfSiblings",
			"event": [
				{
					"listen": "test",
					"script": {
						"id": "62c7b91f-572a-4bcf-b58c-dd6801a0a4d2",
						"exec": [
							"pm.test(\"Status code is 200\", function () {",
							"    pm.response.to.have.status(200);",
							"});",
							"",
							"pm.test(\"Your test name\", function () {",
							"    var jsonData = pm.response.json();",
							"    pm.expect(jsonData.result).to.eql(false);",
							"    pm.expect(jsonData.msg).to.eql(\"Second Person does not exist\");",
							"});"
						],
						"type": "text/javascript"
					}
				}
			],
			"request": {
				"method": "POST",
				"header": [],
				"body": {
					"mode": "raw",
					"raw": "{\n\t\"email\": \"paulo@gmail.com\",\n\t\"siblingEmail\": \"hulk@gmail.com\"\n}",
					"options": {
						"raw": {
							"language": "json"
						}
					}
				},
				"url": {
					"raw": "http://localhost:8080/checkIfSiblings",
					"protocol": "http",
					"host": [
						"localhost"
					],
					"port": "8080",
					"path": [
						"checkIfSiblings"
					]
				},
				"description": "Second Person doesn't exist."
			},
			"response": []
		},
		{
			"name": "http://localhost:8080/checkIfSiblings",
			"event": [
				{
					"listen": "test",
					"script": {
						"id": "f56f031c-d53c-4446-b57e-ad6b5f48ffc3",
						"exec": [
							"pm.test(\"Status code is 200\", function () {",
							"    pm.response.to.have.status(200);",
							"});",
							"pm.test(\"Sibling analysis\", function () {",
							"    var jsonData = pm.response.json();",
							"    pm.expect(jsonData.result).to.eql(false);",
							"    pm.expect(jsonData.msg).to.eql(\"First Person does not exist\");",
							"});"
						],
						"type": "text/javascript"
					}
				}
			],
			"request": {
				"method": "POST",
				"header": [],
				"body": {
					"mode": "raw",
					"raw": "{\n\t\"email\": \"hulk@gmail.com\",\n\t\"siblingEmail\": \"henrique@gmail.com\"\n}",
					"options": {
						"raw": {
							"language": "json"
						}
					}
				},
				"url": {
					"raw": "http://localhost:8080/checkIfSiblings",
					"protocol": "http",
					"host": [
						"localhost"
					],
					"port": "8080",
					"path": [
						"checkIfSiblings"
					]
				},
				"description": "First person doesn't exist."
			},
			"response": []
		},
		{
			"name": "http://localhost:8080/checkIfSiblings",
			"event": [
				{
					"listen": "test",
					"script": {
						"id": "fac7a3cd-06a3-4145-8d5b-4800027635fe",
						"exec": [
							"pm.test(\"Status code is 200\", function () {",
							"    pm.response.to.have.status(200);",
							"});",
							"pm.test(\"Your test name\", function () {",
							"    var jsonData = pm.response.json();",
							"    pm.expect(jsonData.result).to.eql(true);",
							"     pm.expect(jsonData.msg).to.eql(\"Siblings\")",
							"});"
						],
						"type": "text/javascript"
					}
				}
			],
			"request": {
				"method": "POST",
				"header": [],
				"body": {
					"mode": "raw",
					"raw": "{\n\t\"email\": \"rui@gmail.com\",\n\t\"siblingEmail\": \"henrique@gmail.com\"\n}",
					"options": {
						"raw": {
							"language": "json"
						}
					}
				},
				"url": {
					"raw": "http://localhost:8080/checkIfSiblings",
					"protocol": "http",
					"host": [
						"localhost"
					],
					"port": "8080",
					"path": [
						"checkIfSiblings"
					],
					"query": [
						{
							"key": "email",
							"value": "maria@gmail.com",
							"disabled": true
						},
						{
							"key": "denomination",
							"value": "Friends",
							"disabled": true
						},
						{
							"key": "description",
							"value": "Old friends from school",
							"disabled": true
						}
					]
				},
				"description": "Siblings"
			},
			"response": []
		},
		{
			"name": "http://localhost:8080/checkIfSiblings",
			"event": [
				{
					"listen": "test",
					"script": {
						"id": "f985aeca-ec38-44af-98f0-fc8308828276",
						"exec": [
							"pm.test(\"Status code is 200\", function () {",
							"    pm.response.to.have.status(200);",
							"});",
							"pm.test(\"Sibling analysis\", function () {",
							"    var jsonData = pm.response.json();",
							"    pm.expect(jsonData.result).to.eql(false);",
							"    pm.expect(jsonData.msg).to.eql(\"Not Siblings\")",
							"});"
						],
						"type": "text/javascript"
					}
				}
			],
			"request": {
				"method": "POST",
				"header": [],
				"body": {
					"mode": "raw",
					"raw": "{\n\t\"email\": \"paulo@gmail.com\",\n\t\"siblingEmail\": \"henrique@gmail.com\"\n}",
					"options": {
						"raw": {
							"language": "json"
						}
					}
				},
				"url": {
					"raw": "http://localhost:8080/checkIfSiblings",
					"protocol": "http",
					"host": [
						"localhost"
					],
					"port": "8080",
					"path": [
						"checkIfSiblings"
					],
					"query": [
						{
							"key": "email",
							"value": "maria@gmail.com",
							"disabled": true
						},
						{
							"key": "denomination",
							"value": "Friends",
							"disabled": true
						},
						{
							"key": "description",
							"value": "Old friends from school",
							"disabled": true
						}
					]
				},
				"description": "Not siblings."
			},
			"response": []
		}
	],
	"protocolProfileBehavior": {}
}