{
	"info": {
		"_postman_id": "fb88a4d9-0363-4f51-813e-225d694ece93",
		"name": "Sprint 6 - US002_1CreateGroupControllerREST",
		"schema": "https://schema.getpostman.com/json/collection/v2.1.0/collection.json"
	},
	"item": [
		{
			"name": "createGroup_Success",
			"event": [
				{
					"listen": "test",
					"script": {
						"id": "4c4856c0-c9fe-4199-8781-bbb083d68bbd",
						"exec": [
							"    //Response Schema",
							"",
							"const schema = {",
							"    \"type\": \"object\",",
							"    ",
							"    \"properties\": {",
							"        ",
							"        \"denomination\": { \"type\" : \"string\"},",
							"        \"description\": {\"type\" : \"string\"},",
							"        \"dateOfCreation\": {\"type\" : \"string\"},",
							"        ",
							"        \"_links\":{",
							"            \"type\": \"object\",",
							"            ",
							"            \"properties\": {",
							"                \"self\": {",
							"                    \"type\": \"object\",",
							"                    \"properties\": {",
							"                        \"href\": { \"type\": \"string\"}",
							"                        ",
							"                    },",
							"                    \"required\": [\"href\"]",
							"                }",
							"            }, \"required\": [\"self\"]",
							"            ",
							"        }",
							"    }, \"required\": [\"denomination\", \"description\", \"dateOfCreation\", \"_links\"]",
							"};",
							"",
							"",
							"    //Test Response Schema ",
							"",
							"pm.test('Schema is valid', () => {",
							"    ",
							"  pm.response.to.have.jsonSchema(schema);",
							"  ",
							"});",
							"",
							"    //Test Response Body",
							"",
							"pm.test(\"Response Body\", () => {",
							"    ",
							"  const moment = require('moment')",
							"  let dateNow = moment().format(\"YYYY-MM-DD\")",
							"  ",
							"  var jsonData = pm.response.json();",
							"    ",
							"    ",
							"   pm.expect(jsonData.denomination).to.eql(\"Old Friends\");",
							"   pm.expect(jsonData.description).to.eql(\"Old friends from school\");",
							"   pm.expect(jsonData.dateOfCreation).to.eql(dateNow);",
							"    ",
							"}); ",
							""
						],
						"type": "text/javascript"
					}
				}
			],
			"request": {
				"method": "POST",
				"header": [],
				"body": {
					"mode": "raw",
					"raw": "{\n    \"email\": \"rita@gmail.com\",\n    \"denomination\": \"Old Friends\",\n    \"description\": \"Old friends from school\"\n}",
					"options": {
						"raw": {
							"language": "json"
						}
					}
				},
				"url": {
					"raw": "localhost:8080/groups/",
					"host": [
						"localhost"
					],
					"port": "8080",
					"path": [
						"groups",
						""
					]
				}
			},
			"response": []
		},
		{
			"name": "createGroup_CanNotAddGroupTwoTimes",
			"event": [
				{
					"listen": "test",
					"script": {
						"id": "c6100eee-4c3d-4688-bbed-a8cf7c0109f8",
						"exec": [
							"const schema = {",
							"    \"type\": \"object\",",
							"    \"properties\": {",
							"        \"status\": { \"type\": \"string\" },",
							"        \"message\": { \"type\": \"string\" },",
							"        \"errors\": {",
							"            \"type\": \"array\",",
							"            \"minItems\": 1,",
							"            \"maxItems\": 1,",
							"            \"items\": {",
							"                \"type\": \"string\"",
							"            }",
							"        ",
							"    }}, \"required\": [\"status\", \"message\", \"errors\"]",
							"};",
							"",
							"pm.test(\"Validate schema\", () => {",
							"    pm.response.to.have.jsonSchema(schema);",
							"});",
							"",
							"",
							"pm.test(\"Response Body\", function () {",
							"    var jsonData = pm.response.json();",
							"    pm.expect(jsonData.status).to.eql(\"UNPROCESSABLE_ENTITY\");",
							"    pm.expect(jsonData.message).to.eql(\"Group already exist\");",
							"    ",
							"    pm.expect(jsonData.errors[0]).to.eql(\"Status Code: 422, Exception: InvalidArgumentsBusinessException\");",
							"});"
						],
						"type": "text/javascript"
					}
				}
			],
			"request": {
				"method": "POST",
				"header": [],
				"body": {
					"mode": "raw",
					"raw": "{\n    \"email\": \"rita@gmail.com\",\n    \"denomination\": \"Old Friends\",\n    \"description\": \"Old friends from school\"\n}",
					"options": {
						"raw": {
							"language": "json"
						}
					}
				},
				"url": {
					"raw": "localhost:8080/groups/",
					"host": [
						"localhost"
					],
					"port": "8080",
					"path": [
						"groups",
						""
					]
				}
			},
			"response": []
		},
		{
			"name": "createGroup_GroupAlreadyExisteOnRepository",
			"event": [
				{
					"listen": "test",
					"script": {
						"id": "321fc204-0341-436b-a6a9-606b8d44daa3",
						"exec": [
							"const schema = {",
							"    \"type\": \"object\",",
							"    \"properties\": {",
							"        \"status\": { \"type\": \"string\" },",
							"        \"message\": { \"type\": \"string\" },",
							"        \"errors\": {",
							"            \"type\": \"array\",",
							"            \"minItems\": 1,",
							"            \"maxItems\": 1,",
							"            \"items\": {",
							"                \"type\": \"string\"",
							"            }",
							"        ",
							"    }}, \"required\": [\"status\", \"message\", \"errors\"]",
							"};",
							"",
							"pm.test(\"Validate schema\", () => {",
							"    pm.response.to.have.jsonSchema(schema);",
							"});",
							"",
							"",
							"pm.test(\"Response Body\", function () {",
							"    var jsonData = pm.response.json();",
							"    pm.expect(jsonData.status).to.eql(\"UNPROCESSABLE_ENTITY\");",
							"    pm.expect(jsonData.message).to.eql(\"Group already exist\");",
							"    ",
							"    pm.expect(jsonData.errors[0]).to.eql(\"Status Code: 422, Exception: InvalidArgumentsBusinessException\");",
							"});"
						],
						"type": "text/javascript"
					}
				}
			],
			"request": {
				"method": "POST",
				"header": [],
				"body": {
					"mode": "raw",
					"raw": "{\n    \"email\": \"joao@gmail.com\",\n    \"denomination\": \"Silva Family\",\n    \"description\": \"All members of Silva Family\"\n}",
					"options": {
						"raw": {
							"language": "json"
						}
					}
				},
				"url": {
					"raw": "localhost:8080/groups/",
					"host": [
						"localhost"
					],
					"port": "8080",
					"path": [
						"groups",
						""
					]
				}
			},
			"response": []
		},
		{
			"name": "createGroup_PersonDoesNotExist",
			"event": [
				{
					"listen": "test",
					"script": {
						"id": "f1c9c3fc-84d2-45ea-90ca-b7b5ea45d4da",
						"exec": [
							"const schema = {",
							"    \"type\": \"object\",",
							"    \"properties\": {",
							"        \"status\": { \"type\": \"string\" },",
							"        \"message\": { \"type\": \"string\" },",
							"        \"errors\": {",
							"            \"type\": \"array\",",
							"            \"minItems\": 1,",
							"            \"maxItems\": 1,",
							"            \"items\": {",
							"                \"type\": \"string\"",
							"            }",
							"        ",
							"    }}, \"required\": [\"status\", \"message\", \"errors\"]",
							"};",
							"",
							"pm.test(\"Validate schema\", () => {",
							"    pm.response.to.have.jsonSchema(schema);",
							"});",
							"",
							"",
							"pm.test(\"Response Body\", function () {",
							"    var jsonData = pm.response.json();",
							"    pm.expect(jsonData.status).to.eql(\"NOT_FOUND\");",
							"    pm.expect(jsonData.message).to.eql(\"Person does not exist\");",
							"    ",
							"    pm.expect(jsonData.errors[0]).to.eql(\"Status Code: 404, Exception: NotFoundArgumentsBusinessException\");",
							"});"
						],
						"type": "text/javascript"
					}
				}
			],
			"request": {
				"method": "POST",
				"header": [],
				"body": {
					"mode": "raw",
					"raw": "{\n    \"email\": \"valdemar@gmail.com\",\n    \"denomination\": \"do Vale Family\",\n    \"description\": \"All members of do Vale Family\"\n}",
					"options": {
						"raw": {
							"language": "json"
						}
					}
				},
				"url": {
					"raw": "localhost:8080/groups/",
					"host": [
						"localhost"
					],
					"port": "8080",
					"path": [
						"groups",
						""
					]
				}
			},
			"response": []
		},
		{
			"name": "getGroupAdmins_Success",
			"event": [
				{
					"listen": "test",
					"script": {
						"id": "6ca709dc-7d4f-4e0c-9904-ae66d4e21a6e",
						"exec": [
							"    //Response Schema",
							"",
							"const schema = {",
							"    \"type\": \"object\",",
							"    ",
							"    \"properties\": {",
							"",
							"        \"peopleInCharge\": {",
							"            \"type\": \"array\",",
							"            \"minItems\": 1,",
							"            \"maxItems\": 10,",
							"            \"items\": {",
							"                \"type\": \"string\",",
							"            }",
							"        }",
							"    }, \"required\": [\"peopleInCharge\"]",
							"        ",
							"};",
							"",
							"    //Test Response Schema ",
							"",
							"pm.test(\"Validate schema\", () => {",
							"    ",
							"pm.response.to.have.jsonSchema(schema);",
							"",
							"});",
							"",
							"",
							"    //Test Response Body ",
							"    ",
							"pm.test(\"Response Body\", () => {",
							"",
							"  var jsonData = pm.response.json();",
							"    ",
							"pm.expect(jsonData.peopleInCharge[0]).to.eql(\"joao@gmail.com\")",
							"pm.expect(jsonData.peopleInCharge[1]).to.eql(\"maria@gmail.com\");",
							"    ",
							"}); "
						],
						"type": "text/javascript"
					}
				}
			],
			"request": {
				"method": "GET",
				"header": [],
				"url": {
					"raw": "localhost:8080//groups/Silva%20Family/admins",
					"host": [
						"localhost"
					],
					"port": "8080",
					"path": [
						"",
						"groups",
						"Silva%20Family",
						"admins"
					]
				}
			},
			"response": []
		},
		{
			"name": "getGroupMembers_Success",
			"event": [
				{
					"listen": "test",
					"script": {
						"id": "497fc719-a739-4391-857d-9b317e81c9c3",
						"exec": [
							"    //Response Schema",
							"",
							"const schema = {",
							"    \"type\": \"object\",",
							"    ",
							"    \"properties\": {",
							"",
							"        \"members\": {",
							"            \"type\": \"array\",",
							"            \"minItems\": 0,",
							"            \"maxItems\": 10,",
							"            \"items\": {",
							"                \"type\": \"string\",",
							"            }",
							"        }",
							"    }, \"required\": [\"members\"]",
							"        ",
							"};",
							"",
							"    //Test Response Schema ",
							"",
							"pm.test(\"Validate schema\", () => {",
							"    ",
							"pm.response.to.have.jsonSchema(schema);",
							"",
							"});",
							"",
							"",
							"    //Test Response Body ",
							"    ",
							"pm.test(\"Response Body\", () => {",
							"",
							"  var jsonData = pm.response.json();",
							"    ",
							"pm.expect(jsonData.members[0]).to.eql(\"rui@gmail.com\")",
							"pm.expect(jsonData.members[1]).to.eql(\"henrique@gmail.com\");",
							"    ",
							"}); "
						],
						"type": "text/javascript"
					}
				}
			],
			"request": {
				"method": "GET",
				"header": [],
				"url": {
					"raw": "localhost:8080//groups/Silva%20Family/members",
					"host": [
						"localhost"
					],
					"port": "8080",
					"path": [
						"",
						"groups",
						"Silva%20Family",
						"members"
					]
				}
			},
			"response": []
		},
		{
			"name": "getGroupLedger_Success",
			"event": [
				{
					"listen": "test",
					"script": {
						"id": "7285eb1e-8619-4aee-84e4-0ba46077088b",
						"exec": [
							"    //Response Schema",
							"",
							"const schema = {",
							"    \"type\": \"object\",",
							"    ",
							"    \"properties\": {",
							"",
							"        \"transactions\": {",
							"            \"type\": \"array\",",
							"            \"minItems\": 1,",
							"            \"maxItems\": 50,",
							"            \"items\": {",
							"                \"type\": \"object\",",
							"                ",
							"            \"properties\": {",
							"            \"category\": { \"type\": \"string\" },",
							"            \"description\": { \"type\": \"string\" },",
							"            \"amount\": { \"type\": \"number\" },",
							"            \"date\": { \"type\": \"string\" },",
							"            \"debitAccount\": { \"type\": \"string\" },",
							"            \"creditAccount\": { \"type\": \"string\" },",
							"",
							"            },",
							"            \"required\": [\"category\", \"description\", \"amount\", \"date\", \"debitAccount\", \"creditAccount\"]",
							"        }}",
							"",
							"    }, \"required\": [\"transactions\"]",
							"    ",
							"};",
							"",
							"    //Test Response Schema ",
							"",
							"pm.test(\"Validate schema\", () => {",
							"    ",
							"pm.response.to.have.jsonSchema(schema);",
							"",
							"});"
						],
						"type": "text/javascript"
					}
				}
			],
			"request": {
				"method": "GET",
				"header": [],
				"url": {
					"raw": "localhost:8080//groups/Silva%20Family/ledger",
					"host": [
						"localhost"
					],
					"port": "8080",
					"path": [
						"",
						"groups",
						"Silva%20Family",
						"ledger"
					]
				}
			},
			"response": []
		},
		{
			"name": "getGroupAccounts_Success",
			"event": [
				{
					"listen": "test",
					"script": {
						"id": "54dbc02e-123d-4184-97cb-420f5f6b12c3",
						"exec": [
							"    //Response Schema",
							"",
							"const schema = {",
							"    \"type\": \"object\",",
							"    ",
							"    \"properties\": {",
							"",
							"        \"accounts\": {",
							"            \"type\": \"array\",",
							"            \"minItems\": 0,",
							"            \"maxItems\": 50,",
							"            \"items\": {",
							"                \"type\": \"string\",",
							"            },",
							"        }",
							"",
							"    }, \"required\": [\"accounts\"]",
							"    ",
							"};",
							"",
							"    //Test Response Schema ",
							"",
							"pm.test(\"Validate schema\", () => {",
							"    ",
							"pm.response.to.have.jsonSchema(schema);",
							"",
							"});",
							"",
							"    //Test Response Body ",
							"    ",
							"pm.test(\"Response Body\", () => {",
							"",
							"  var jsonData = pm.response.json();",
							"    ",
							"pm.expect(jsonData.accounts[0]).to.eql(\"Company\")",
							"pm.expect(jsonData.accounts[1]).to.eql(\"Bank Account\");",
							"pm.expect(jsonData.accounts[6]).to.eql(\"Streaming Services\");",
							"    ",
							"}); "
						],
						"type": "text/javascript"
					}
				}
			],
			"request": {
				"method": "GET",
				"header": [],
				"url": {
					"raw": "localhost:8080//groups/Silva%20Family/accounts",
					"host": [
						"localhost"
					],
					"port": "8080",
					"path": [
						"",
						"groups",
						"Silva%20Family",
						"accounts"
					]
				}
			},
			"response": []
		},
		{
			"name": "getGroupCategories_Success",
			"event": [
				{
					"listen": "test",
					"script": {
						"id": "24edb1d1-3406-4672-afc1-486e4b36e9df",
						"exec": [
							"    //Response Schema",
							"",
							"const schema = {",
							"    \"type\": \"object\",",
							"    ",
							"    \"properties\": {",
							"",
							"        \"categories\": {",
							"            \"type\": \"array\",",
							"            \"minItems\": 0,",
							"            \"maxItems\": 50,",
							"            \"items\": {",
							"                \"type\": \"string\",",
							"            },",
							"        }",
							"",
							"    }, \"required\": [\"categories\"]",
							"    ",
							"};",
							"",
							"    //Test Response Schema ",
							"",
							"pm.test(\"Validate schema\", () => {",
							"    ",
							"pm.response.to.have.jsonSchema(schema);",
							"",
							"});",
							"",
							"",
							"    //Test Response Body ",
							"    ",
							"pm.test(\"Response Body\", () => {",
							"",
							"  var jsonData = pm.response.json();",
							"    ",
							"pm.expect(jsonData.categories[0]).to.eql(\"Salary\")",
							"pm.expect(jsonData.categories[1]).to.eql(\"Draw Money\");",
							"pm.expect(jsonData.categories[2]).to.eql(\"IRS\");",
							"pm.expect(jsonData.categories[3]).to.eql(\"Food\");",
							"pm.expect(jsonData.categories[4]).to.eql(\"Water Bill\");",
							"pm.expect(jsonData.categories[5]).to.eql(\"Netflix\");",
							"    ",
							"}); "
						],
						"type": "text/javascript"
					}
				}
			],
			"request": {
				"method": "GET",
				"header": [],
				"url": {
					"raw": "localhost:8080//groups/Silva%20Family/categories",
					"host": [
						"localhost"
					],
					"port": "8080",
					"path": [
						"",
						"groups",
						"Silva%20Family",
						"categories"
					]
				}
			},
			"response": []
		}
	],
	"protocolProfileBehavior": {}
}