@startuml
scale 1.5
skinparam class {
BackgroundColor #F2F2F2
ArrowColor #404040
BorderColor #7F7F7F
}
skinparam classAttributeIconSize 0
left to right direction
title <b>"Personal Finance Management"</b>\nDesign Class Diagram US011
class Ledger {
- records : ArrayList<Transaction>
+ addTransaction()
+ createTransaction()
+ getRecordsBetweenTwoDates()
(...)
}
class Person {
- birthdate : String
- birthplace : String
- name : String
- siblings : ArrayList<Person>
+ createAccount()
+ createCategory()
+ createTransaction()
+ getRecordsBetweenTwoDates()
(...)
}
class Controler_US011 {
+ getPersonRecordsBetweenTwoDates()
}
Controler_US011 ..> Person
Person "1" *--> "1" Ledger
@enduml