@startuml

scale 1.35

'__Layout
skinparam class {
BackgroundColor #F2F2F2
ArrowColor #404040
BorderColor #7F7F7F
}

skinparam classAttributeIconSize 0

left to right direction

'__Design classes

'__Title
title <b>US002.1</b> Create a Group and become Person In Charge\nController REST Design Class Diagram - <i>Sprint 5</i>

'__Controller
class US002_1CreateGroupControllerREST{
+ createGroupAsPersonInCharge()
}

'__DTO
class CreateGroupDTOAssembler {
 + createDTOFromPrimitiveTypes()
 }

'__DTO
 class CreateGroupDTO {
 + getEmail()
 + getDenomination()
 + getDescription()
 - email: String
 - denomination: String
 - description: String
 }

'__Service
class US002_1CreateGroupService {
+ createGroupAsPersonInCharge()
}

'__Interface
interface IPersonRepository {
}

'__Repository
class PersonRepository {
- personRepo : List <Person>
+ existPerson()
(...)
}

'__Aggregate
package AggregatePerson <<Folder>>{
class Person {
- personID : personID
}
}

'__Interface
interface IGroupRepository {
}

'__Repository
class GroupRepository {
- groupRepo : List <Group>
+ existGroup()
+ saveGroup()
(...)
}

'__Aggregate
package AggregateGroup <<Folder>>{
class Group {
- groupID: groupID
- description : Description
- personInCharge : PersonID
- dateOfCreation : Date
- ledgerId : LedgerID
+ createGroupAsPersonInCharge()
(...)
}
}

'__DTO
class BooleanDTOAssembler {
 + createDTOFromPrimitiveTypes()
 }

 '__DTO
 class BooleanDTO {
  + getResult()
  + getMsg()
  + setResult()
  + setMsg()
  - result: String
  - msg: String
  }

'__Associations
'__Dependency relationships
US002_1CreateGroupControllerREST..> CreateGroupDTOAssembler
CreateGroupDTOAssembler --> CreateGroupDTO
US002_1CreateGroupControllerREST..> US002_1CreateGroupService
US002_1CreateGroupService --> IGroupRepository
US002_1CreateGroupService --> IPersonRepository
IGroupRepository <.. GroupRepository
IPersonRepository <.. PersonRepository
GroupRepository "1" *--> "*" Group
PersonRepository "1" *--> "*" Person
US002_1CreateGroupService --> BooleanDTOAssembler
BooleanDTOAssembler --> BooleanDTO

@enduml