@startuml

scale 1.35

'__Layout
skinparam class {
BackgroundColor #F2F2F2
ArrowColor #404040
BorderColor #7F7F7F
}

skinparam classAttributeIconSize 0

left to right direction

'__Title
title <b>"Personal Finance Management"</b>\nDesign Class Diagram US_003AddPersonToGroup

'__Design classes

class US_003AddPersonToGroupControllerREST {
+ addPersonToGroup()

}

class AddPersonToGroupDTOAssembler{
+ createDataTransferObject_Primitives()
(...)
}

class AddPersonToGroupDTO{
- email : String
- denomination : String

+ addPersonToGroup()
(...)
}

class GroupDTOAssembler{
+ createDTOFromDomainObject()
(...)
}

class GroupDTO{
- denomination : String
- description : String
- dateOfCreation : String

+ GroupDTO()
(...)
}


class US_003AddPersonToGroupService {
- personRepo : IPersonRepository
- groupRepo : IGroupRepository

+ addPersonToGroup()
(...)
}

interface IGroupRepository {
}

class GroupRepository {
- groupRepo : List <Group>

+ findGroupByGroupID()
+ existsGroup()
(...)
}

package AggregateGroup <<Folder>>{
class Group {
- groupID : GroupID

+ isPersonAlreadyMember()
+ addMember()
(...)
}
}

interface IPersonRepository {
}

class PersonRepository {
- personRepo : List <Person>

+ existPerson()
(...)
}

'__Associations
'__Dependency relationships

US_003AddPersonToGroupControllerREST --> US_003AddPersonToGroupService
US_003AddPersonToGroupControllerREST --> AddPersonToGroupDTOAssembler
AddPersonToGroupDTOAssembler --> AddPersonToGroupDTO
US_003AddPersonToGroupService --> GroupDTOAssembler
GroupDTOAssembler --> GroupDTO
US_003AddPersonToGroupService ..> IGroupRepository
US_003AddPersonToGroupService ..> IPersonRepository
IGroupRepository <.. GroupRepository
IPersonRepository <.. PersonRepository
GroupRepository "1" *-- "*" Group




'__Dependency relationships
'PersonRepository-{ Person

@enduml