@startuml

autonumber "<b> 0."

skinparam defaultFontName Dialog

skinparam Sequence {
ArrowThickness 1
ArrowColor #000000

MessageAlignment center
MessageTextAlignment left

LifeLineBorderColor #000000
LifeLineBorderThickness 1
LifeLineBackgroundColor #C0C0C0

ParticipantBorderColor #000000
ParticipantBackgroundColor #FFFF81
ParticipantFontSize 14
ParticipantFontStyle bold
ParticipantFontColor #000000

ReferenceAlignment center
ReferenceBackgroundColor #FFFF81
ReferenceBorderColor #000000
ReferenceBorderThickness 1.5
ReferenceFontColor #000000
ReferenceFontSize 12
}


mainFrame <b>  SD_Tomcat_Generic Processing Representation  </b>

hide footbox
participant "HTTP Client"

activate "HTTP Client"

participant "Tomcat (Web Server)"
"HTTP Client" -> "Tomcat (Web Server)" : HTTP request (URL, data)

activate "Tomcat (Web Server)"

"Tomcat (Web Server)" -> "Tomcat (Web Server)" : invocation of a sequence of methods \nto process the request, to deliver the \ncorresponding object to the \nRest Controller (<b>deserialization</b>)

activate "Tomcat (Web Server)"

participant "{x}Rest Controller"

deactivate "Tomcat (Web Server)"

"Tomcat (Web Server)" -> "{x}Rest Controller" : <b>objectIn (dto)</b>

activate "{x}Rest Controller"

"{x}Rest Controller" -> "Tomcat (Web Server)" : <b>objectOut (dto)</b>

deactivate "{x}Rest Controller"

|||
"Tomcat (Web Server)" -> "Tomcat (Web Server)" : invocation of a sequence of methods \nto process the object returned by \nthe Rest Controller, to deliver \nthe required byte array (<b>serialization</b>)

activate "Tomcat (Web Server)"
deactivate "Tomcat (Web Server)"

"Tomcat (Web Server)" --> "HTTP Client" : <b>response</b>

deactivate "Tomcat (Web Server)"
deactivate "HTTP Client"

@enduml