-------------------------------------------------------------------------------
Test set: switch2019.project.controllerLayer.integrationTests.US010PersonAccountRecordsControllerIntegrationTest
-------------------------------------------------------------------------------
Tests run: 11, Failures: 0, Errors: 0, Skipped: 0, Time elapsed: 8.214 s - in switch2019.project.controllerLayer.integrationTests.US010PersonAccountRecordsControllerIntegrationTest
