-------------------------------------------------------------------------------
Test set: switch2019.project.persistenceLayer.dataModel.PersonJpaTest
-------------------------------------------------------------------------------
Tests run: 9, Failures: 0, Errors: 0, Skipped: 0, Time elapsed: 0.003 s - in switch2019.project.persistenceLayer.dataModel.PersonJpaTest
