-------------------------------------------------------------------------------
Test set: switch2019.project.applicationLayer.dtosAssemblers.PersonDTOAssemblerTest
-------------------------------------------------------------------------------
Tests run: 5, Failures: 0, Errors: 0, Skipped: 0, Time elapsed: 0.001 s - in switch2019.project.applicationLayer.dtosAssemblers.PersonDTOAssemblerTest
