-------------------------------------------------------------------------------
Test set: switch2019.project.applicationLayer.dtosAssemblers.AccountsDTOAssemblerTest
-------------------------------------------------------------------------------
Tests run: 1, Failures: 0, Errors: 0, Skipped: 0, Time elapsed: 0 s - in switch2019.project.applicationLayer.dtosAssemblers.AccountsDTOAssemblerTest
