-------------------------------------------------------------------------------
Test set: switch2019.project.controllerLayer.integrationTests.US001_CheckIfSiblingsControllerTest
-------------------------------------------------------------------------------
Tests run: 5, Failures: 0, Errors: 0, Skipped: 0, Time elapsed: 0.175 s - in switch2019.project.controllerLayer.integrationTests.US001_CheckIfSiblingsControllerTest
