-------------------------------------------------------------------------------
Test set: switch2019.project.infrastructureLayer.repositoriesInMemory.CategoryRepositoryTest
-------------------------------------------------------------------------------
Tests run: 12, Failures: 0, Errors: 0, Skipped: 0, Time elapsed: 0.332 s - in switch2019.project.infrastructureLayer.repositoriesInMemory.CategoryRepositoryTest
