-------------------------------------------------------------------------------
Test set: switch2019.project.controllerLayer.integrationTests.US006CreatePersonAccountControllerTest
-------------------------------------------------------------------------------
Tests run: 6, Failures: 0, Errors: 0, Skipped: 0, Time elapsed: 0.138 s - in switch2019.project.controllerLayer.integrationTests.US006CreatePersonAccountControllerTest
