-------------------------------------------------------------------------------
Test set: switch2019.project.dataModelLayer.dataModel.PersonJpaTest
-------------------------------------------------------------------------------
Tests run: 10, Failures: 0, Errors: 0, Skipped: 0, Time elapsed: 0.007 s - in switch2019.project.dataModelLayer.dataModel.PersonJpaTest
