-------------------------------------------------------------------------------
Test set: switch2019.project.controllerLayer.integrationTests.US008CreatePersonTransactionControllerTest
-------------------------------------------------------------------------------
Tests run: 2, Failures: 0, Errors: 0, Skipped: 0, Time elapsed: 0.174 s - in switch2019.project.controllerLayer.integrationTests.US008CreatePersonTransactionControllerTest
