-------------------------------------------------------------------------------
Test set: switch2019.project.dtoLayer.dtos.GroupIDDTOTest
-------------------------------------------------------------------------------
Tests run: 8, Failures: 0, Errors: 0, Skipped: 0, Time elapsed: 0.001 s - in switch2019.project.dtoLayer.dtos.GroupIDDTOTest
