-------------------------------------------------------------------------------
Test set: switch2019.project.controllerLayer.integrationTests.US004GroupsThatAreFamilyControllerTest
-------------------------------------------------------------------------------
Tests run: 3, Failures: 0, Errors: 0, Skipped: 0, Time elapsed: 0.243 s - in switch2019.project.controllerLayer.integrationTests.US004GroupsThatAreFamilyControllerTest
