-------------------------------------------------------------------------------
Test set: switch2019.project.dataModelLayer.dataModel.AdminJpaTest
-------------------------------------------------------------------------------
Tests run: 19, Failures: 0, Errors: 0, Skipped: 0, Time elapsed: 0.024 s - in switch2019.project.dataModelLayer.dataModel.AdminJpaTest
