-------------------------------------------------------------------------------
Test set: switch2019.project.controllerLayer.integrationTests.US007_CreateGroupAccountControllerTest
-------------------------------------------------------------------------------
Tests run: 8, Failures: 0, Errors: 0, Skipped: 0, Time elapsed: 0.247 s - in switch2019.project.controllerLayer.integrationTests.US007_CreateGroupAccountControllerTest
