-------------------------------------------------------------------------------
Test set: switch2019.project.applicationLayer.applicationServices.US010PersonSearchAccountRecordsServiceTest
-------------------------------------------------------------------------------
Tests run: 11, Failures: 0, Errors: 0, Skipped: 0, Time elapsed: 0.288 s - in switch2019.project.applicationLayer.applicationServices.US010PersonSearchAccountRecordsServiceTest
