-------------------------------------------------------------------------------
Test set: switch2019.project.applicationLayer.applicationServices.US007CreateGroupAccountServiceTest
-------------------------------------------------------------------------------
Tests run: 4, Failures: 0, Errors: 0, Skipped: 0, Time elapsed: 0.083 s - in switch2019.project.applicationLayer.applicationServices.US007CreateGroupAccountServiceTest
