-------------------------------------------------------------------------------
Test set: switch2019.project.dataModelLayer.dataModel.AccountJpaTest
-------------------------------------------------------------------------------
Tests run: 11, Failures: 0, Errors: 0, Skipped: 0, Time elapsed: 0.018 s - in switch2019.project.dataModelLayer.dataModel.AccountJpaTest
