-------------------------------------------------------------------------------
Test set: switch2019.project.domainLayer.domainEntities.aggregates.scheduling.PeriodicityTest
-------------------------------------------------------------------------------
Tests run: 7, Failures: 0, Errors: 0, Skipped: 0, Time elapsed: 0.001 s - in switch2019.project.domainLayer.domainEntities.aggregates.scheduling.PeriodicityTest
