-------------------------------------------------------------------------------
Test set: switch2019.project.controllerLayer.integrationTests.US005_1CreateGroupCategoryControllerTest
-------------------------------------------------------------------------------
Tests run: 8, Failures: 0, Errors: 0, Skipped: 0, Time elapsed: 0.171 s - in switch2019.project.controllerLayer.integrationTests.US005_1CreateGroupCategoryControllerTest
