@startuml
!define LIGHTBLUE
!includeurl https://raw.githubusercontent.com/Drakemor/RedDress-PlantUML/master/style.puml

hide footbox
participant ":testController_US01"

create "Controller_US01 : Controller_US01"
activate ":testController_US01" #34b7eb

":testController_US01" [#blue]--> "Controller_US01 : Controller_US01": create

":testController_US01" [#blue]-> "Controller_US01 : Controller_US01": boolean <b>result</b>=checkIfBrother(email,\n siblingEmail, personRepository)
activate "Controller_US01 : Controller_US01" #34b7eb

create "Service_US01 : Service_US01"
"Controller_US01 : Controller_US01" [#blue]-->  "Service_US01 : Service_US01" : create
'deactivate "Controller_US01 : Controller_US01" #34b7eb
"Controller_US01 : Controller_US01" [#blue]-> "Service_US01 : Service_US01": boolean <b>result</b>=checkIfBrother(email,\n siblingEmail, personRepository)

create "hulkID : PersonID"
activate "Service_US01 : Service_US01" #34b7eb

'deactivate "Service_US01 : Service_US01" #34b7eb

"Service_US01 : Service_US01" [#blue]-> "hulkID : PersonID" : PersonID.createPersonID(email)
'activate "Service_US01 : Service_US01" #34b7eb
'deactivate "Service_US01 : Service_US01"
create "wolverineID : PersonID"
"Service_US01 : Service_US01" [#blue]-> "wolverineID : PersonID" : PersonID.createPersonID(email)
'activate "Service_US01 : Service_US01" #34b7eb
'"Service_US01 : Service_US01" [#blue]->  "personID : PersonID" **: create
'activate "Service_US01 : Service_US01"

participant "personRepository:PersonRepository"
participant "hulk: Person"

"Service_US01 : Service_US01" [#blue]-> "personRepository:PersonRepository" : Person hulk = personRepository.findPersonByPersonID(hulkID)
activate "personRepository:PersonRepository" #34b7eb
return hulk

"Service_US01 : Service_US01" [#blue]-> "personRepository:PersonRepository" : Person wolverine = personRepository.findPersonByPersonID(wolverinehulkID)
activate "personRepository:PersonRepository" #34b7eb
return wolverine

alt verifySiblingsOrHalfSiblings(wolverine) == true


"Service_US01 : Service_US01" [#blue]-> "hulk: Person" : <b>verifyIfSibling</b>  = verifySiblingsOrHalfSiblings(wolverine);
activate "hulk: Person" #34b7eb
"Service_US01 : Service_US01" <-- "hulk: Person": verifyIfSibling
deactivate "hulk: Person"


else verifySiblingsOrHalfSiblings(wolverine) == false

"Service_US01 : Service_US01" [#blue]-> "hulk: Person" : <b>verifyIfSibling</b>  = verifySiblingsOrHalfSiblings(wolverine);
activate "hulk: Person" #34b7eb
"Service_US01 : Service_US01" <-- "hulk: Person": verifyIfSibling
deactivate "hulk: Person"

end
participant "expectedList : List <PersonID>"

"Controller_US01 : Controller_US01" <-- "Service_US01 : Service_US01": <b>result</b>

":testController_US01" <-- "Controller_US01 : Controller_US01": <b>result</b>
deactivate "Service_US01 : Service_US01"
deactivate "Controller_US01 : Controller_US01"


":testController_US01" [#blue]-> ":testController_US01": assertTrue(<b>result</b>)
":testController_US01" [#blue]-> ":testController_US01": assertEquals(expectedList, <b>hulk.getSiblings()</b>)

@enduml