@startuml

scale 1.35

'__Layout
skinparam class {
BackgroundColor #F2F2F2
ArrowColor #404040
BorderColor #7F7F7F
}

skinparam classAttributeIconSize 0

left to right direction

'__Title
title <b>"Personal Finance Management"</b>\nDesign Class Diagram US_04

'__Design classes

class Controller_US04 {
+ getGroupThatAreFamily()
}

class Service_US04 {
+ getGroupThaAreFamily()
(...)
}

interface IGroupRepository {
}

class GroupRepository {
- groupRepo : List <Group>

+ getGroupRepo()
(...)
}


package AggregateGroup <<Folder>>{
class Group {
- groupID : GroupID
- peopleInCharge : List<PersonID>
- members : List<PersonID>

+ getAllMembers()
+ getGroupID()
(...)
}
}

interface IPersonRepository {
}

class PersonRepository {
- personRepo : List <Person>

+ findPersonByID()
(...)
}

package AggregatePerson <<Folder>>{
class Person {
- personID : PersonID
- mother : PersonID
- father : PersonID


+ getFather()
+ getMother()
(...)
}

'__Associations
'__Dependency relationships

Controller_US04 ..> Service_US04
Service_US04--> IGroupRepository
Service_US04--> IPersonRepository
IGroupRepository <.. GroupRepository
IPersonRepository <.. PersonRepository
GroupRepository  *-->"*" Group
PersonRepository  *-->"*" Person




'__Dependency relationships
'PersonRepository-{ Person

@enduml